{
  "name": "Logins",
  "description": "",
  "main": "NewActivity.xaml",
  "dependencies": {
    "UiPath.System.Activities": "21.10.3",
    "UiPath.UIAutomation.Activities": "21.10.4"
  },
  "webServices": [],
  "entitiesStores": [],
  "schemaVersion": "4.0",
  "studioVersion": "21.10.4.0",
  "projectVersion": "1.0.1",
  "runtimeOptions": {
    "autoDispose": false,
    "netFrameworkLazyLoading": false,
    "isPausable": true,
    "isAttended": false,
    "requiresUserInteraction": true,
    "supportsPersistence": false,
    "excludedLoggedData": [
      "Private:*",
      "*password*"
    ],
    "executionType": "Workflow",
    "readyForPiP": false,
    "startsInPiP": false,
    "mustRestoreAllDependencies": true
  },
  "designOptions": {
    "projectProfile": "Developement",
    "outputType": "Library",
    "libraryOptions": {
      "includeOriginalXaml": false,
      "privateWorkflows": []
    },
    "processOptions": {
      "ignoredFiles": []
    },
    "fileInfoCollection": [],
    "modernBehavior": true
  },
  "expressionLanguage": "VisualBasic",
  "isTemplate": false,
  "templateProjectData": {},
  "publishData": {},
  "targetFramework": "Legacy"
}